{
"ingles":{
    "user":"Name",
    "pass":"Password"
    },
"español":{
    "user":"Nombre",
    "pass":"Contraseña"
    },
"frances":{
    "user":"Nom",
    "pass":"Mot de passe"
    },
"italiano":{
    "user":"Nome",
    "pass":"Parola d'ordine"
    },
"aleman":{
    "user":"Name",
    "pass":"Passwort"
    }
}